[gd_scene load_steps=3 format=2]

[ext_resource path="res://interface/palenight/Palenight.theme" type="Theme" id=1]
[ext_resource path="res://tabs/wind/Wind.tscn" type="PackedScene" id=2]

[node name="Main" type="Control"]
anchor_right = 1.0
anchor_bottom = 1.0
theme = ExtResource( 1 )
__meta__ = {
"_edit_use_anchors_": false
}

[node name="TabContainer" type="TabContainer" parent="."]
anchor_right = 1.0
anchor_bottom = 1.0
tab_align = 0
__meta__ = {
"_edit_use_anchors_": false
}

[node name="Wind" parent="TabContainer" instance=ExtResource( 2 )]
margin_left = 12.0
margin_top = 47.0
margin_right = -12.0
margin_bottom = -12.0
